{
    "corpus_name": "timit1",
    "corpus_type": "asr",
    "language": "english",
    "source_type": null,
    "customer_name": null,
    "data_domain_name": null,
    "custom_fields": [
      {
        "field_name": "template_file_path",
        "field_value": "/poc/librispeech/asr/template_timit.py"
      },
      {
       	"field_name": "common_schema",
        "field_value": "/poc/librispeech/asr/output_schema_timit.json"
      },
      {
      	"field_name":"native_schema",
	"field_value": "/poc/librispeech/asr/output_schema_timit.json"
      }
    ]
  }
